…
* Each one contains the name of a node, and one column corresponds to one path.


```r
N <- 50

dat <-
  tibble(from = sample(1:5, N, replace = T),
         to = sample(1:5, N, replace = T))
```


```
## # A tibble: 50 x 2
##     from    to
##    <int> <int>
##  1     2     5
##  2     2     1
##  3     1     3
##  4     1     4
##  5     5     3
##  6     4     3
##  7     4     3
##  8     5     4
##  9     5     3
## 10     3     3
## # … with 40 more rows
```
…
```r
dat <-
  tibble(from = sample(1:5, N, replace = T),
         to = sample(1:5, N, replace = T),
         tag = rep(c("A", "B"), each = N/2)) %>% 
  group_by(from, to) %>% 
  mutate(n = n()) %>% 
  distinct() 
```


```
## # A tibble: 34 x 4
## # Groups:   from, to [22]
##     from    to tag       n
##    <int> <int> <chr> <int>
##  1     2     4 A         4
##  2     2     3 A         3
##  3     2     2 A         3
##  4     5     2 A         2
##  5     5     3 A         2
##  6     1     1 A         3
##  7     3     4 A         2
##  8     4     3 A         2
##  9     4     4 A         3
## 10     1     2 A         5
## # … with 24 more rows
```
…
